<?xml version="1.0" encoding="UTF-8" standalone="no"?>
<!-- Created with Inkscape (http://www.inkscape.org/) -->

<svg
   xmlns:dc="http://purl.org/dc/elements/1.1/"
   xmlns:cc="http://creativecommons.org/ns#"
   xmlns:rdf="http://www.w3.org/1999/02/22-rdf-syntax-ns#"
   xmlns:svg="http://www.w3.org/2000/svg"
   xmlns="http://www.w3.org/2000/svg"
   xmlns:sodipodi="http://sodipodi.sourceforge.net/DTD/sodipodi-0.dtd"
   xmlns:inkscape="http://www.inkscape.org/namespaces/inkscape"
   width="200"
   height="179.54858"
   id="svg2"
   version="1.1"
   inkscape:version="0.92.5 (2060ec1f9f, 2020-04-08)"
   sodipodi:docname="logoPL.svg">
  <defs
     id="defs4" />
  <sodipodi:namedview
     id="base"
     pagecolor="#ffffff"
     bordercolor="#666666"
     borderopacity="1.0"
     inkscape:pageopacity="0.0"
     inkscape:pageshadow="2"
     inkscape:zoom="1.9494962"
     inkscape:cx="71.9065"
     inkscape:cy="89.774292"
     inkscape:document-units="px"
     inkscape:current-layer="layer1"
     showgrid="false"
     showguides="false"
     inkscape:guide-bbox="true"
     inkscape:window-width="1920"
     inkscape:window-height="1015"
     inkscape:window-x="0"
     inkscape:window-y="0"
     inkscape:window-maximized="1"
     fit-margin-top="0"
     fit-margin-left="0"
     fit-margin-right="0"
     fit-margin-bottom="0">
    <sodipodi:guide
       position="113.2814,68.230335"
       orientation="70.210999,0"
       id="guide3773"
       inkscape:locked="false" />
    <sodipodi:guide
       position="183.4924,-1.9806651"
       orientation="0,70.210999"
       id="guide3775"
       inkscape:locked="false" />
    <sodipodi:guide
       position="183.4924,-1.9806651"
       orientation="-70.210999,0"
       id="guide3777"
       inkscape:locked="false" />
    <sodipodi:guide
       position="183.4924,68.230335"
       orientation="0,-70.210999"
       id="guide3779"
       inkscape:locked="false" />
    <sodipodi:guide
       orientation="1,0"
       position="10.730768,43.085595"
       id="guide3781"
       inkscape:locked="false" />
    <sodipodi:guide
       orientation="1,0"
       position="285.22906,-1.9806651"
       id="guide3783"
       inkscape:locked="false" />
    <sodipodi:guide
       orientation="0,1"
       position="127.24443,171.4481"
       id="guide3785"
       inkscape:locked="false" />
    <sodipodi:guide
       orientation="0,1"
       position="133.66256,-104.5313"
       id="guide3787"
       inkscape:locked="false" />
  </sodipodi:namedview>
  <metadata
     id="metadata7">
    <rdf:RDF>
      <cc:Work
         rdf:about="">
        <dc:format>image/svg+xml</dc:format>
        <dc:type
           rdf:resource="http://purl.org/dc/dcmitype/StillImage" />
        <dc:title></dc:title>
      </cc:Work>
    </rdf:RDF>
  </metadata>
  <g
     inkscape:label="Layer 1"
     inkscape:groupmode="layer"
     id="layer1"
     transform="translate(-49.00717,-350.11675)">
    <g
       style="display:inline;fill:#ff6600;fill-opacity:1"
       transform="matrix(0.76591289,-0.01941089,0.04222543,0.78057668,99.883063,194.7282)"
       id="g4432-3">
      <g
         transform="matrix(1.1308891,0,0,1.1308891,-2.2031766,-23.419267)"
         style="fill:#ff6600;fill-opacity:1"
         id="g4461-6">
        <path
           sodipodi:nodetypes="csssscsssscssssssssssccsscsssscssssssssssssssssscc"
           inkscape:connector-curvature="0"
           id="path4463-7"
           d="m 44.086201,394.39048 c -1.410963,1.54915 -4.069265,-0.58742 -5.900535,0.24696 -2.14482,0.97725 -10.653692,-2.53119 -11.617532,-3.83911 -0.41478,-0.56285 -2.99859,-1.64574 -5.74179,-2.4064 -5.62229,-1.55902 -6.20163,-1.97296 -7.31617,-5.2276 -0.7207,-2.10456 -1.05455,-2.31003 -3.6161404,-2.22567 -1.55217,0.0511 -4.61212,0.77275 -6.79989,1.60365 -4.51448,1.71456 -10.5112687,2.36966 -7.9032791,0.75231 5.51525002,-3.42031 5.37073914,-8.82928 7.8852091,-16.13771 3.46449,-10.06972 4.0587957,-14.10133 3.98691,-36.93714 -0.038515,-12.235 0.6708499,-23.55228 0.6708499,-23.55228 0,0 1.0057699,-6.20275 1.2516503,-7.49552 0.39877,-2.09667 1.3516902,-3.30553 -0.1229202,-3.30553 -2.50486,0 -15.30758,8.87427 -19.3564996,13.41704 -1.96666,2.20656 -5.31624,7.08764 -7.44351,10.84684 -2.12726,3.75921 -4.10879,6.83492 -4.40341,6.83492 -0.9939,0 -1.5214,-5.20438 -1.12043,-11.05438 0.83276,-12.14985 8.01423,-21.92163 25.1089796,-34.16563 10.8304004,-7.7572 19.1688304,-14.0527 21.7503904,-19.14717 2.93922,-5.80027 5.146548,-5.9653 7.431368,-20.68837 1.14757,-7.3948 0.813972,-23.44128 1.424972,-24.62282 1.69534,-3.27844 5.52295,-6.75206 9.53242,-8.65083 2.780027,-1.65255 7.32167,-2.22417 11.621216,-1.41554 0,0 1.413464,0.4331 2.690734,1.11695 1.27726,0.68386 3.29865,1.77938 4.49197,2.4345 1.19333,0.65513 3.49309,1.19314 5.11058,1.19559 3.5758,0.005 11.30651,1.35927 12.09648,2.11841 0.31506,0.30276 -1.52845,1.58492 -4.09668,2.84925 -5.47289,2.6943 -11.519261,4.49473 -12.223701,8.24969 -0.65191,3.475 -5.902548,21.72881 4.646609,36.35253 l 6.761592,9.37323 5.81533,6.14965 c 7.22718,7.64267 9.99803,11.64694 12.38257,17.89461 2.4969,6.54208 4.550173,32.39048 2.837523,38.93708 -1.47725,5.64676 -3.88394,10.57612 -4.74186,9.7122 -0.34326,-0.34566 -0.969294,-2.79616 -1.3914,-5.44554 -1.527634,-9.58829 -9.339371,-39.73653 -11.043167,-41.32493 -1.091858,-1.01791 -6.159021,-12.56873 -7.211969,-0.77646 -1.449357,16.23178 -9.670747,53.65595 -17.612815,69.39407 -0.909538,1.80235 -2.519179,3.55409 -3.323946,5.24438 -3.801061,7.98354 7.862304,9.66944 16.366104,10.31259 4.43898,0.33571 5.96016,0.77021 7.63735,2.18148 2.65653,2.23532 2.69755,3.76445 0.10547,3.93172 -7.23372,0.46679 -11.05517,0.30847 -13.76661,-0.57036 -1.70444,-0.55244 -4.89239,-1.00444 -7.08434,-1.00444 -4.1685,0 -5.32192,-0.71662 -8.37184,-5.20142 -3.06389,-4.50534 -16.44832,-4.63435 -17.09563,-0.16478 -0.34326,2.37011 2.00444,3.769 9.65356,5.75217 8.6664,2.24691 10.568881,5.73906 10.568881,5.73906 z"
           style="fill:#ff6600;fill-opacity:1"
           inkscape:export-xdpi="22"
           inkscape:export-ydpi="22" />
      </g>
    </g>
    <g
       style="display:inline;fill:#ff6600;fill-opacity:1"
       id="g255-3"
       transform="matrix(4.2516856,0.04515109,-0.04515109,4.2516856,-1704.975,726.07458)" />
  </g>
</svg>
